Which is bigger, 11      or       15?
Which is bigger, 17      or       14?
Which is bigger, 21      or       16?
Which is bigger, 12      or       19?
Which is bigger, 15      or       10?
Which is bigger, 13      or       14?
Which is bigger, 15      or       14?
Which is bigger, 12      or       17?
Which is bigger, 15      or       18?
